  _____ _____ _   _   ____   ___       _    _   _ 
 |_   _| ____| \ | | |  _ \ / _ \     / \  | \ | |
   | | |  _| |  \| | | | | | | | |   / _ \ |  \| |
   | | | |___| |\  | | |_| | |_| |  / ___ \| |\  |
   |_| |_____|_| \_| |____/ \___/  /_/   \_\_| \_|